-------------------------------------------------------------------------------
Test set: com.epam.project.UserTest
-------------------------------------------------------------------------------
Tests run: 12, Failures: 0, Errors: 0, Skipped: 0, Time elapsed: 0.013 s - in com.epam.project.UserTest
