D:\IT\JAVA_PROJECTS\SortingAppProject\src\main\java\com\epam\project\MainApp.java
D:\IT\JAVA_PROJECTS\SortingAppProject\src\main\java\com\epam\project\User.java
D:\IT\JAVA_PROJECTS\SortingAppProject\src\main\java\com\epam\project\Calc.java
